<?xml version="1.0"?>
<VTKFile type="UnstructuredGrid"  version="0.1"  >
<UnstructuredGrid>
<Piece  NumberOfPoints="162" NumberOfCells="320">
<Points>
<DataArray  type="Float64"  NumberOfComponents="3"  format="ascii">-7.320510347343189e-08 -0 0.9999999999999973  0.723606747453298 0.5257310968934623 0.4472136947805334  -0.2763931935846601 0.8506507589726001 0.4472136947807078  -0.8944271413594954 -4.151054847848817e-08 0.4472136947807833  -0.2763928594320393 -0.8506508675452799 0.4472136947807431  0.723606980256698 -0.5257307764667967 0.4472136947806962  0.8944271413594962 0 -0.4472136947807837  0.2763931541054561 0.8506507718002632 -0.4472136947805315  -0.723606798138737 0.5257310271310944 -0.4472136947803473  -0.7236065916210845 -0.5257313113781363 -0.4472136947804058  0.2763933181289537 -0.8506507185058158 -0.4472136947804778  -7.320510347343189e-08 -0 -0.9999999999999973  0.4253284542710438 0.3089984219035839 0.8506560299254332  -0.1624508404181944 0.5000044184924652 0.8506499314849991  -0.5257311694964836 2.000595827517754e-05 0.8506507726556306  -0.1624729896094683 -0.4999761128730263 0.8506623385361201  0.4253595933007434 -0.309053972068094 0.8506202788177343  0.2628597698651001 0.8090317755421667 0.5257112587243646  -0.688202738591062 0.4999836618727967 0.5257312321481687  -0.6881781666351381 -0.5000174285410587 0.5257312831874164  0.2628660624401485 -0.8090167518418392 0.5257312321486067  0.8506672469685613 1.751770418899698e-07 0.525704512948955  0.5877970930356403 0.8090083913772766 1.000009979983568e-05  2.326794896598518e-06 0.9999999999972931 0  -0.5877853667715373 0.8090169095279969 -5.20290122764856e-05  -0.9510654808626834 0.308989402359459 1.846556369895213e-05  -0.951056460347252 -0.3090171665648299 0  -0.5877611833478426 -0.8090344806064194 2.322595359789459e-05  1.051961530602446e-05 -0.9999999995660434 -2.751819369647681e-05  0.5877693055613922 -0.8090285801131372 0  0.9510535985697425 -0.3090259740661667 0  0.9510499573062784 0.3090371801381281 0  0.6881908605792788 0.5000000109586448 -0.5257312321486204  -0.2628610956160751 0.8090357281828646 -0.5257045129491839  -0.8506507026257091 -2.946740856572256e-07 -0.5257312831878095  -0.2628741324927655 -0.8090116918661914 -0.5257349835135366  0.6881970619377473 -0.4999914754111903 -0.5257312321485127  0.1624502966512038 0.5000031640879224 -0.8506507726558543  -0.4253254747365715 0.3090169955190415 -0.8506507726561441  -0.4253253533485118 -0.3090171625953591 -0.8506507726561335  0.1624599430925499 -0.5000000298703162 -0.8506507726558816  0.5257310848109134 0 -0.8506508252294477  0.2260406148900734 0.1643158742626925 0.9601593273438552  0.5932935466847633 0.433044870351235 0.6785830146155272  -0.08602427917780273 0.2659300497849107 0.9601463596834258  -0.2283743295680649 0.6972611939349096 0.6794644898939174  -0.2794149416156842 0.0002308117680633476 0.9601704208773729  -0.7338972228773007 -0.002134433371646391 0.6792571754844901  -0.08641831585302361 -0.2657986277244093 0.9601473658688795  -0.2249309957401524 -0.6987121412192134 0.6791225153594936  0.2261093743224576 -0.1642393794329075 0.9601562253544993  0.5949295209992431 -0.429274465345817 0.6795456558949324  0.5073173515371141 0.6980349573520302 0.5053477051930857  -0.002276678001527992 0.8619603238466375 0.5069706272078072  -0.5067014341557626 0.6981286147649254 0.5058360345713812  -0.8203429166427723 0.2643061022898111 0.5071289613169391  -0.8206100571919394 -0.2662815660596852 0.5056612122876774  -0.5050326382468175 -0.69841768318175 0.5071043030033326  -0.0001644965134981725 -0.8626818735028912 0.5057469308561731  0.5085034739986692 -0.6959014457340553 0.5070950549517678  0.8203030046083641 0.2673334617499151 0.5056043916534911  0.8200751497235739 -0.266868836514921 0.5062190957510694  0.6801841372489006 0.697071008268905 0.2268072945606933  0.4515843987540571 0.8631417907134997 -0.2259596865058673  -0.141850773470566 0.9636980686761639 0.2261954696620463  0.1398000643413031 0.9635371995186517 -0.2281490897503685  -0.4534094361632678 0.8619362028974136 0.2269049698285522  -0.6810854931356902 0.6964370890199807 -0.2260485170875693  -0.9603853901230194 0.1625743905782455 0.2263392806526697  -0.8731452065917839 0.4309848435481496 -0.2277487932735716  -0.9598295180152522 -0.1650241805274109 0.2269235910782857  -0.8728734436888872 -0.4323700903813961 -0.2261593602889044  -0.4513970138152605 -0.8630789256814428 0.2265733964154483  -0.6796845477707009 -0.6972044547335651 -0.2278922197474283  -0.1398434323686228 -0.9638045393060295 0.2269903619902277  0.1417087441544229 -0.9638011649098424 -0.2258449608660932  0.6812078971887363 -0.6963382934629082 0.2259840301102372  0.4533258269046785 -0.8616608845453603 -0.2281144771944491  0.8730422760838028 -0.4315225128045052 0.2271244265007594  0.9598525010023113 -0.1634606990810723 -0.2279556451933911  0.8731195824302808 0.4316139518696134 0.2266530196760397  0.9594500728864724 0.1654746890547285 -0.2281965927010823  0.819694395727749 0.2653530657910935 -0.5076306217002554  0.5052582309119319 0.6990310478512741 -0.506033313365528  0.000398373248993131 0.8616701973750764 -0.5074685332652177  -0.508680020735224 0.6963341582378547 -0.5063233912984766  -0.8195424314257542 0.2669665405981079 -0.5070296532687627  -0.8194099852469978 -0.2684433717558781 -0.5064636534222869  -0.5068857626420976 -0.696910938589596 -0.5073282638537966  0.001714243709761542 -0.8627199452245391 -0.5056791052439006  0.8194471950207781 -0.2645983746739386 -0.508423046972193  0.5065603978717101 -0.6974363115631728 -0.5069311142761034  0.2249944310900121 0.698448119082036 -0.6793730425394049  0.08524535007026696 0.2662438733459244 -0.9601288612458002  -0.5948636302106475 0.4295633745876759 -0.6794207596662457  -0.226424508692389 0.1630910123619666 -0.9602777012667529  -0.5925053412407481 -0.4330968056180624 -0.6792382332912473  -0.2258957420806765 -0.1649534798248139 -0.9600840917354609  0.2278687585801587 -0.6981820233555435 -0.6786882134870892  0.08609118074575665 -0.2646559610765187 -0.9604923377437561  0.7333289774639214 0.0003103111357838876 -0.6798738960415516  0.2792757508185986 0.002204468064390136 -0.9602084124424557  0.1435771249393531 0.441984266813942 0.8854578008482908  0.3448138442448807 0.5881813102089986 0.7315368474232128  0.06540459095411547 0.678956468181396 0.7312594298857075  -0.3755866371634731 0.272885531240332 0.8857020745284022  -0.4533627294538504 0.5086813596942309 0.7319190596246168  -0.6256273658387329 0.2712784457528682 0.7314358509012232  -0.3755645133789785 -0.2727909047545528 0.8857406045641149  -0.623864487705833 -0.2740306876266254 0.7319154891231755  -0.4512871904107956 -0.5111370422036824 0.731490803673157  0.1437752430014634 -0.4415486531165674 0.8856429678097238  0.06768726751687211 -0.6779966002034864 0.7319419675962114  0.3467140475779004 -0.5874733117360198 0.7312075472874052  0.464299960115605 0.0005586426481062162 0.8856778392593095  0.6656868185043631 -0.1439467491945492 0.7322160835886227  0.6657795146919856 0.1493445948240799 0.7310498134965465  0.8087769839618644 0.5877676491469751 -0.02022327445762942  0.8559547412008103 0.4418782481615403 -0.2684866753072527  0.6829240253373401 0.6792395907094354 -0.2687905393236945  0.4323176268125402 0.8612356021219139 0.2671604521348134  0.3073170068684924 0.9514031597970395 0.01970494398875621  0.1529441648047899 0.9506677960584574 0.2698866873143624  -0.3094333858881833 0.9506967053288735 -0.020658029300966  -0.1553556991117109 0.9507301559753313 -0.2682848808126056  -0.4345914952802433 0.8593986476638379 -0.2693774241165151  -0.6856636603025978 0.6769830611065192 0.2675056633331161  -0.8096832570592557 0.5865264710794441 0.01999304781690578  -0.8571525709888834 0.438794713997923 0.2697196118465029  -0.9997895411148592 -0.0005388330363165888 -0.02050812366595993  -0.9521931826101833 0.1461201278461498 -0.268285391381855  -0.9516845199410764 -0.1476165936475028 -0.2692692254685465  -0.8556252221862672 -0.4432087106454888 0.2673415754548182  -0.8080247866627079 -0.5888211218025524 0.01963748094509821  -0.6822307925891161 -0.6796788202353129 0.2694398763486198  -0.3088485338442641 -0.9508971298758633 -0.0201799785949867  -0.4332917767242527 -0.860354657368945 -0.2684177709592004  -0.1542222742991652 -0.9507416778962041 -0.2688972889805763  0.1567743439185851 -0.9508335929146698 0.267090403560063  0.3105344120511331 -0.9503572656234073 0.01973440165947803  0.4352864746268271 -0.8589243514450631 0.2697677584546128  0.8095780506039553 -0.5866408154543755 -0.02087902352421867  0.685153708774448 -0.6772579594454379 -0.2681157431416892  0.8570680503245006 -0.4389071684370047 -0.2698052160495975  0.9525544196844513 0.1457961555729204 0.2671770172746433  0.9525378488354026 -0.1462507773127523 0.2669875590199656  0.9998558442107121 -7.380285809094027e-05 0.01697896789626428  0.6232513037551622 0.2739987318630379 -0.73244966195974  0.3753720864765537 0.2743195972421042 -0.8853499620281058  0.4519209816358647 0.5120351467721717 -0.7304706940235708  -0.0684972579745005 0.6767251038282991 -0.7330424677319539  -0.1448099566561155 0.4407918925938444 -0.8858513328300582  -0.3473736461352648 0.5876371529235951 -0.7307627018906638  -0.6652998752386645 0.1440019795522028 -0.7325568277563622  -0.4643495917737249 -0.000925146466356707 -0.8856515120088662  -0.6658968974293477 -0.1489770829461166 -0.7310178867516409  -0.3423637815410001 -0.587808285163501 -0.7329859896219645  -0.1419246808893462 -0.4417630120148795 -0.8858345365642495  -0.06417758219210981 -0.67960901880019 -0.7307618076428311  0.6229312755609064 -0.2732509042160891 -0.7330010704447516  0.4514368105012944 -0.508820568747009 -0.7330118927714535  0.3733390904065504 -0.2714508023094503 -0.8870920952753244  </DataArray>
</Points>
<Cells>
<DataArray  type="UInt32"  Name="connectivity"  format="ascii">102 103 104  105 106 107  108 109 110  111 112 113  114 115 116  117 118 119  120 121 122  123 124 125  126 127 128  129 130 131  132 133 134  135 136 137  138 139 140  141 142 143  144 145 146  147 148 149  150 151 152  153 154 155  156 157 158  159 160 161  42 44 102  43 52 103  45 53 104  44 46 105  45 54 106  47 55 107  46 48 108  47 56 109  49 57 110  48 50 111  49 58 112  51 59 113  42 50 114  51 61 115  43 60 116  62 80 117  81 82 118  63 83 119  52 62 120  63 65 121  53 64 122  64 66 123  65 84 124  67 85 125  54 66 126  67 69 127  55 68 128  68 70 129  69 86 130  71 87 131  56 70 132  71 73 133  57 72 134  72 74 135  73 88 136  75 89 137  58 74 138  75 77 139  59 76 140  76 78 141  77 91 142  79 90 143  60 80 144  61 78 145  79 81 146  82 100 147  93 101 148  83 92 149  84 92 150  93 95 151  85 94 152  86 94 153  95 97 154  87 96 155  88 96 156  97 99 157  89 98 158  90 100 159  91 98 160  99 101 161  12 102 103  13 102 104  17 103 104  13 105 106  14 105 107  18 106 107  14 108 109  15 108 110  19 109 110  15 111 112  16 111 113  20 112 113  12 114 116  16 114 115  21 115 116  22 117 119  31 117 118  32 118 119  17 120 122  22 120 121  23 121 122  23 123 124  24 123 125  33 124 125  18 126 128  24 126 127  25 127 128  25 129 130  26 129 131  34 130 131  19 132 134  26 132 133  27 133 134  27 135 136  28 135 137  35 136 137  20 138 140  28 138 139  29 139 140  29 141 142  30 141 143  36 142 143  21 144 145  30 145 146  31 144 146  32 147 149  37 148 149  41 147 148  33 150 152  37 150 151  38 151 152  34 153 155  38 153 154  39 154 155  35 156 158  39 156 157  40 157 158  36 159 160  40 160 161  41 159 161  0 42 44  12 42 102  13 44 102  1 43 52  12 43 103  17 52 103  2 45 53  13 45 104  17 53 104  0 44 46  13 44 105  14 46 105  2 45 54  13 45 106  18 54 106  3 47 55  14 47 107  18 55 107  0 46 48  14 46 108  15 48 108  3 47 56  14 47 109  19 56 109  4 49 57  15 49 110  19 57 110  0 48 50  15 48 111  16 50 111  4 49 58  15 49 112  20 58 112  5 51 59  16 51 113  20 59 113  0 42 50  12 42 114  16 50 114  5 51 61  16 51 115  21 61 115  1 43 60  12 43 116  21 60 116  1 62 80  22 62 117  31 80 117  6 81 82  31 81 118  32 82 118  7 63 83  22 63 119  32 83 119  1 52 62  17 52 120  22 62 120  7 63 65  22 63 121  23 65 121  2 53 64  17 53 122  23 64 122  2 64 66  23 64 123  24 66 123  7 65 84  23 65 124  33 84 124  8 67 85  24 67 125  33 85 125  2 54 66  18 54 126  24 66 126  8 67 69  24 67 127  25 69 127  3 55 68  18 55 128  25 68 128  3 68 70  25 68 129  26 70 129  8 69 86  25 69 130  34 86 130  9 71 87  26 71 131  34 87 131  3 56 70  19 56 132  26 70 132  9 71 73  26 71 133  27 73 133  4 57 72  19 57 134  27 72 134  4 72 74  27 72 135  28 74 135  9 73 88  27 73 136  35 88 136  10 75 89  28 75 137  35 89 137  4 58 74  20 58 138  28 74 138  10 75 77  28 75 139  29 77 139  5 59 76  20 59 140  29 76 140  5 76 78  29 76 141  30 78 141  10 77 91  29 77 142  36 91 142  6 79 90  30 79 143  36 90 143  1 60 80  21 60 144  31 80 144  5 61 78  21 61 145  30 78 145  6 79 81  30 79 146  31 81 146  6 82 100  32 82 147  41 100 147  11 93 101  37 93 148  41 101 148  7 83 92  32 83 149  37 92 149  7 84 92  33 84 150  37 92 150  11 93 95  37 93 151  38 95 151  8 85 94  33 85 152  38 94 152  8 86 94  34 86 153  38 94 153  11 95 97  38 95 154  39 97 154  9 87 96  34 87 155  39 96 155  9 88 96  35 88 156  39 96 156  11 97 99  39 97 157  40 99 157  10 89 98  35 89 158  40 98 158  6 90 100  36 90 159  41 100 159  10 91 98  36 91 160  40 98 160  11 99 101  40 99 161  41 101 161  </DataArray>
<DataArray  type="UInt32"  Name="offsets"  format="ascii">3 6 9 12 15 18 21 24 27 30 33 36 39 42 45 48 51 54 57 60 63 66 69 72 75 78 81 84 87 90 93 96 99 102 105 108 111 114 117 120 123 126 129 132 135 138 141 144 147 150 153 156 159 162 165 168 171 174 177 180 183 186 189 192 195 198 201 204 207 210 213 216 219 222 225 228 231 234 237 240 243 246 249 252 255 258 261 264 267 270 273 276 279 282 285 288 291 294 297 300 303 306 309 312 315 318 321 324 327 330 333 336 339 342 345 348 351 354 357 360 363 366 369 372 375 378 381 384 387 390 393 396 399 402 405 408 411 414 417 420 423 426 429 432 435 438 441 444 447 450 453 456 459 462 465 468 471 474 477 480 483 486 489 492 495 498 501 504 507 510 513 516 519 522 525 528 531 534 537 540 543 546 549 552 555 558 561 564 567 570 573 576 579 582 585 588 591 594 597 600 603 606 609 612 615 618 621 624 627 630 633 636 639 642 645 648 651 654 657 660 663 666 669 672 675 678 681 684 687 690 693 696 699 702 705 708 711 714 717 720 723 726 729 732 735 738 741 744 747 750 753 756 759 762 765 768 771 774 777 780 783 786 789 792 795 798 801 804 807 810 813 816 819 822 825 828 831 834 837 840 843 846 849 852 855 858 861 864 867 870 873 876 879 882 885 888 891 894 897 900 903 906 909 912 915 918 921 924 927 930 933 936 939 942 945 948 951 954 957 960 </DataArray>
<DataArray  type="UInt8"  Name="types"  format="ascii">5 5 5 5 5 5 5 5 5 5 5 5 5 5 5 5 5 5 5 5 5 5 5 5 5 5 5 5 5 5 5 5 5 5 5 5 5 5 5 5 5 5 5 5 5 5 5 5 5 5 5 5 5 5 5 5 5 5 5 5 5 5 5 5 5 5 5 5 5 5 5 5 5 5 5 5 5 5 5 5 5 5 5 5 5 5 5 5 5 5 5 5 5 5 5 5 5 5 5 5 5 5 5 5 5 5 5 5 5 5 5 5 5 5 5 5 5 5 5 5 5 5 5 5 5 5 5 5 5 5 5 5 5 5 5 5 5 5 5 5 5 5 5 5 5 5 5 5 5 5 5 5 5 5 5 5 5 5 5 5 5 5 5 5 5 5 5 5 5 5 5 5 5 5 5 5 5 5 5 5 5 5 5 5 5 5 5 5 5 5 5 5 5 5 5 5 5 5 5 5 5 5 5 5 5 5 5 5 5 5 5 5 5 5 5 5 5 5 5 5 5 5 5 5 5 5 5 5 5 5 5 5 5 5 5 5 5 5 5 5 5 5 5 5 5 5 5 5 5 5 5 5 5 5 5 5 5 5 5 5 5 5 5 5 5 5 5 5 5 5 5 5 5 5 5 5 5 5 5 5 5 5 5 5 5 5 5 5 5 5 5 5 5 5 5 5 5 5 5 5 5 5 5 5 5 5 5 5 5 5 5 5 5 5 5 5 5 5 5 5 </DataArray>
</Cells>
<PointData  Scalars="f_69828"> 
<DataArray  type="Float64"  Name="f_69828"  format="ascii">3.7162791953933139e-01  4.3186803606001556e-01  5.4541022058413413e-01  7.1157930878228437e-01  3.7168611281080072e-01  8.0326714875526428e-01  6.8479900096071467e-01  3.6155704080210421e-01  7.6572358012882014e-01  4.2951721920439334e-01  5.2811560086885179e-01  3.6986788934182507e-01  3.7826511467503693e-01  3.9407925934449956e-01  4.4412206103211627e-01  3.4976833867811280e-01  4.5616071702677907e-01  3.6878102409235902e-01  7.5119627185065174e-01  4.3472327270038635e-01  5.2245755567464025e-01  6.5879212931307085e-01  3.7365519725268037e-01  4.4074679689454416e-01  8.1625651928752418e-01  9.4674454074339631e-01  6.2873584508958746e-01  3.7384007811553011e-01  4.4609756283949292e-01  7.8144084076843612e-01  9.8487842777704859e-01  6.1628507736525640e-01  4.3199021252925202e-01  5.2887697312003334e-01  6.6268626108552442e-01  3.7149516265905053e-01  7.1553463822035257e-01  3.6692785271003958e-01  4.7248776326964026e-01  3.8288009274648638e-01  4.1952287726480736e-01  4.5174842375862179e-01  3.8324576886516076e-01  4.2884609318807282e-01  3.8247606668478601e-01  4.9242191464639484e-01  4.0051496892153465e-01  5.7285733086508128e-01  3.7065618914778542e-01  3.8014742906282273e-01  4.0112626801307988e-01  6.2906192329214505e-01  3.7682839030739718e-01  4.2567728192570342e-01  6.6546150617613187e-01  7.5917187442389156e-01  5.5382215395301804e-01  3.7775609126072046e-01  4.2396695930965289e-01  6.5452422852911230e-01  5.4826816283375102e-01  7.7748825648153885e-01  4.3828611806870055e-01  3.8264457931579016e-01  5.1545342011790574e-01  4.3549847876766756e-01  7.4600237643815259e-01  8.5587496371970506e-01  8.9420736799968370e-01  1.0163653483829007e+00  7.5066512054897183e-01  5.5279029067518681e-01  3.8272512674468451e-01  4.3788733002822694e-01  4.3528939520158855e-01  5.1517960297885712e-01  8.5578988375609555e-01  7.4593766986977206e-01  1.0166285131637038e+00  8.9492009976204301e-01  5.6571447209748749e-01  7.3705670486585262e-01  5.3369678892170869e-01  3.7320112558841939e-01  4.1716084331414199e-01  6.3555543064724351e-01  7.4245480775710493e-01  5.4235514495332249e-01  3.6819890980126363e-01  4.1761546890051349e-01  7.3757546651235950e-01  6.4529994799186130e-01  3.8005687242698200e-01  3.7075128756526171e-01  6.2905593823684580e-01  4.0117139440984328e-01  4.2064435035219799e-01  3.8097918231370204e-01  4.9236100094040963e-01  3.8251567974377876e-01  5.8014631851817000e-01  3.9797610732380106e-01  3.7747745246171344e-01  3.7851364147289712e-01  4.0621670617251693e-01  4.6927586713218111e-01  5.5451015171792506e-01  6.0376439565957474e-01  3.9041698837389349e-01  4.6435291649448662e-01  3.9892871694092202e-01  4.2443376105427888e-01  4.2497725048722734e-01  5.2576119117297682e-01  4.4153629529654181e-01  5.8591163834594684e-01  5.1282196935712876e-01  4.5862968201536591e-01  5.0729814868367662e-01  3.8832522633127864e-01  3.8523688768972741e-01  3.4979865779003122e-01  4.2192762234319958e-01  5.7661531320651671e-01  4.8568315069240520e-01  6.1120145824461769e-01  8.5533139663066837e-01  9.3501187120868856e-01  9.8369953643154251e-01  8.0716891094314591e-01  8.1332295906544494e-01  6.5169809413712787e-01  5.4592932143942940e-01  4.4101397792146807e-01  4.3442974408488827e-01  3.5005786345719098e-01  3.5864648277537953e-01  3.7405587972293536e-01  5.2235049686433732e-01  5.7687562835617090e-01  7.1127115524610052e-01  9.3565827323607687e-01  7.8996850894139425e-01  8.3601445878514602e-01  7.4537928125037733e-01  8.8236665789475288e-01  8.0703120133624984e-01  4.5682059759702620e-01  3.8974998748763595e-01  3.8178114503785404e-01  4.1656867184784235e-01  4.2429925019793846e-01  5.2783596092895890e-01  5.7635031571517981e-01  4.4604960488547263e-01  4.9417442062996003e-01  3.7064727302460265e-01  3.7729634892100689e-01  3.9702697312993018e-01  5.9673389442973690e-01  5.4271235945003637e-01  4.6840125035086255e-01  </DataArray> 
</PointData> 
</Piece>
</UnstructuredGrid>
</VTKFile>